advert_date,closing_dates,client,description,eligibility,link
2021-07-30 00:00:00,2021-08-23 00:00:00,PASIR RIS-PUNGGOL TOWN COUNCIL,CONSTRUCTION OF COVERED WALKWAY FROM BLOCK 327B SUMANG WALK TO PUNGGOL COVE PRIMARY SCHOOL FOR PASIR RIS-PUNGGOL TOWN COUNCIL (CONTRACT PERIOD – 6 MONTHS) (EMAIL ADDRESS : AA-21-013-PRPG@emservices.com.sg),CONSTRUCTION OF COVERED WALKWAY FROM BLOCK 327B SUMANG WALK TO PUNGGOL COVE PRIMARY SCHOOL FOR PASIR RIS-PUNGGOL TOWN COUNCIL (CONTRACT PERIOD – 6 MONTHS) (EMAIL ADDRESS : AA-21-013-PRPG@emservices.com.sg),General Building (CW01) - $0.75 Million & above (C3)
2021-07-30 00:00:00,2021-08-23 00:00:00,PASIR RIS-PUNGGOL TOWN COUNCIL,TERM CONTRACT FOR PROVISION OF MOBILE VIDEO SURVEILLANCE SYSTEM AND SERVICES FOR PASIR RIS-PUNGGOL TOWN COUNCIL (CONTRACT PERIOD – 24 MONTHS) (EMAIL ADDRESS : BM-21-011-PRPG@emservices.com.sg),TERM CONTRACT FOR PROVISION OF MOBILE VIDEO SURVEILLANCE SYSTEM AND SERVICES FOR PASIR RIS-PUNGGOL TOWN COUNCIL (CONTRACT PERIOD – 24 MONTHS) (EMAIL ADDRESS : BM-21-011-PRPG@emservices.com.sg),Communication & Security Systems (ME04) - $1.5 Million & above (L2) 
2021-07-30 00:00:00,2021-08-23 00:00:00,HOLLAND-BUKIT PANJANG TOWN COUNCIL,TERM CONTRACT FOR PROVISION OF MOBILE VIDEO SURVEILLANCE SYSTEM AND SERVICES FOR HOLLAND-BUKIT PANJANG TOWN COUNCIL (CONTRACT PERIOD – 24 MONTHS) (EMAIL ADDRESS : BM-21-012-HBP@emservices.com.sg),TERM CONTRACT FOR PROVISION OF MOBILE VIDEO SURVEILLANCE SYSTEM AND SERVICES FOR HOLLAND-BUKIT PANJANG TOWN COUNCIL (CONTRACT PERIOD – 24 MONTHS) (EMAIL ADDRESS : BM-21-012-HBP@emservices.com.sg),Communication & Security Systems (ME04) - $1.5 Million & above (L2) 
2021-07-30 00:00:00,2021-08-23 00:00:00,TAMPINES TOWN COUNCIL,REPLACEMENT AND COMPREHENSIVE MAINTENANCE OF ALERT ALARM SYSTEM (AAS) AT BLOCK 494D AND 494E TAMPINES STREET 43 FOR TAMPINES TOWN COUNCIL (CONTRACT PERIOD – 9 MONTHS) (EMAIL ADDRESS : CYCL-21-014-TM@emservices.com.sg),REPLACEMENT AND COMPREHENSIVE MAINTENANCE OF ALERT ALARM SYSTEM (AAS) AT BLOCK 494D AND 494E TAMPINES STREET 43 FOR TAMPINES TOWN COUNCIL (CONTRACT PERIOD – 9 MONTHS) (EMAIL ADDRESS : CYCL-21-014-TM@emservices.com.sg),Communication & Security Systems (ME04) - $4.5 Million & above (L3) OR Experienced Nurse Call System Contractors with relevant track records 
2021-08-06 00:00:00,2021-08-27 00:00:00,"EAST COAST, HOLLAND-BUKIT PANJANG, JALAN BESAR, PASIR RIS-PUNGGOL, BISHAN-TOA PAYOH, MARSILING-YEW TEE, SEMBAWANG, NEE SOON, TAMPINES, TANJONG PAGAR & WEST COAST TOWN COUNCILS","SUPPLY OF ELECTRICITY TO CONTESTABLE PREMIES FOR THE PERIOD 1 JAN 2022 TO 31 DEC 2023 FOR EAST COAST, HOLLAND-BUKIT PANJANG, JALAN BESAR, MARSILING-YEW TEE, NEE SOON, PASIR RIS-PUNGGOL, SEMBAWANG, TAMPINES, TANJONG PAGAR, WEST COAST AND BISHAN-TOA PAYOH TOWN COUNCILS (EMAIL ADDRESS : BM-21-013-TC@emservices.com.sg)","SUPPLY OF ELECTRICITY TO CONTESTABLE PREMIES FOR THE PERIOD 1 JAN 2022 TO 31 DEC 2023 FOR EAST COAST, HOLLAND-BUKIT PANJANG, JALAN BESAR, MARSILING-YEW TEE, NEE SOON, PASIR RIS-PUNGGOL, SEMBAWANG, TAMPINES, TANJONG PAGAR, WEST COAST AND BISHAN-TOA PAYOH TOWN COUNCILS (EMAIL ADDRESS : BM-21-013-TC@emservices.com.sg)",All electricity retailers approved by Energy Market Authority
2021-08-06 00:00:00,2021-08-27 00:00:00,PASIR RIS-PUNGGOL TOWN COUNCIL,REPLACEMENT OF FIRE PROTECTION SYSTEMS (PRESSURE TANKS & FIRE DETECTORS) FOR PASIR RIS-PUNGGOL TOWN COUNCIL (CONTRACT PERIOD – 9 MONTHS) (EMAIL ADDRESS : CYCL-21-015-PRPG@emservices.com.sg),REPLACEMENT OF FIRE PROTECTION SYSTEMS (PRESSURE TANKS & FIRE DETECTORS) FOR PASIR RIS-PUNGGOL TOWN COUNCIL (CONTRACT PERIOD – 9 MONTHS) (EMAIL ADDRESS : CYCL-21-015-PRPG@emservices.com.sg),Fire Prevention & Protection Systems (ME06) - $0.75 Million & above (L1)
2021-08-06 00:00:00,2021-08-27 00:00:00,PASIR RIS-PUNGGOL TOWN COUNCIL,TERM CONTRACT FOR THE PROVISION OF WORKMEN FOR THE PERIOD 1 JAN 2022 TO 31 DEC 2023 FOR PASIR RIS-PUNGGOL TOWN COUNCIL  (EMAIL ADDRESS :  CON-21-007-PRPG@emservices.com.sg),TERM CONTRACT FOR THE PROVISION OF WORKMEN FOR THE PERIOD 1 JAN 2022 TO 31 DEC 2023 FOR PASIR RIS-PUNGGOL TOWN COUNCIL  (EMAIL ADDRESS :  CON-21-007-PRPG@emservices.com.sg),"Housekeeping, Cleansing, Desilting & Conservancy Service (FM02) - $0.75 Million & above (L1)"
2021-08-06 00:00:00,2021-09-01 00:00:00,TAMPINES TOWN COUNCIL,REPAIRS AND REDECORATION TO 39 BLOCKS IN TAMPINES EAST & CENTRAL DIVISIONS AND COOL COATING PILOT PROGRAMME IN TAMPINES CENTRAL & WEST DIVISIONS FOR TAMPINES TOWN COUNCIL (CONTRACT PERIOD – 18 MONTHS) (EMAIL ADDRESS : RR-21-017-TM@emservices.com.sg),REPAIRS AND REDECORATION TO 39 BLOCKS IN TAMPINES EAST & CENTRAL DIVISIONS AND COOL COATING PILOT PROGRAMME IN TAMPINES CENTRAL & WEST DIVISIONS FOR TAMPINES TOWN COUNCIL (CONTRACT PERIOD – 18 MONTHS) (EMAIL ADDRESS : RR-21-017-TM@emservices.com.sg),Repairs & Redecoration (CR09) - $7.5 Million & above (L4) (Tenderers are required to furnish a joint warranty for the paintwork)
2021-08-13 00:00:00,2021-09-03 00:00:00,TAMPINES TOWN COUNCIL,SUPPLY AND INSTALLATION OF SAFETY PROVISIONS AT ROOFTOP OF EXISTING HDB BUILDINGS FOR TAMPINES TOWN COUNCIL (CONTRACT PERIOD – 18 MONTHS) (EMAIL ADDRESS : AA-21-014-TM@emservices.com.sg),SUPPLY AND INSTALLATION OF SAFETY PROVISIONS AT ROOFTOP OF EXISTING HDB BUILDINGS FOR TAMPINES TOWN COUNCIL (CONTRACT PERIOD – 18 MONTHS) (EMAIL ADDRESS : AA-21-014-TM@emservices.com.sg),Waterproofing Installation (CR13) - $4.5 Million & above (L3)
2021-08-13 00:00:00,2021-09-03 00:00:00,SENGKANG TOWN COUNCIL,SUPPLY OF ELECTRICITY TO CONTESTABLE PREMIES FOR THE PERIOD 1 JAN 2022 TO 31 DEC 2023 FOR SENGKANG TOWN COUNCIL (EMAIL ADDRESS : BM-21-014-SK@emservices.com.sg),SUPPLY OF ELECTRICITY TO CONTESTABLE PREMIES FOR THE PERIOD 1 JAN 2022 TO 31 DEC 2023 FOR SENGKANG TOWN COUNCIL (EMAIL ADDRESS : BM-21-014-SK@emservices.com.sg),All electricity retailers approved by Energy Market Authority
