title,description,publish_date,link
$100 million Darwin-Asia subsea fibre cable announced,"The Northern Territory Government has announced the construction of a $100 million, lightning-fast subsea fibre cable from Darwin into...",2021-08-17 00:00:00+10:05,https://infrastructuremagazine.com.au/2021/08/17/100-million-darwin-asia-subsea-fibre-cable-announced/
New tougher COVID restrictions for VIC construction sites,"The Victorian Government has announced a lockdown extension and tougher restrictions for Melbourne’s sixth lockdown, including additional restrictions for...",2021-08-17 00:00:00+10:05,https://infrastructuremagazine.com.au/2021/08/17/new-tougher-covid-restrictions-for-vic-construction-sites/
$631 million contract awarded for two level crossing removals,"The Victorian Government has awarded the $631 million contract for two level crossing removals, located at Union Road in...",2021-08-17 00:00:00+10:05,https://infrastructuremagazine.com.au/2021/08/17/631-million-contract-awarded-for-two-level-crossing-removals/
Extend infrastructure longevity with a rust converter protection system,"Metal infrastructures are designed to withstand the elements, but they have one specific weakness: rust. Once it appears, rust...",2021-08-17 00:00:00+10:05,https://infrastructuremagazine.com.au/2021/08/17/extend-infrastructure-longevity-with-a-rust-converter-protection-system/
Fast-tracking and investment boosts for road safety projects ,"The Federal Government has announced further investment boosts for Australian roads, through the Road Safety Program, to fast-track projects...",2021-08-17 00:00:00+10:05,https://infrastructuremagazine.com.au/2021/08/17/fast-tracking-and-investment-boosts-for-road-safety-projects/
Plan for proposed port rejected,A proposal for a new port has been turned down due to environmental and local business concerns.  The new...,2021-08-17 00:00:00+10:05,https://infrastructuremagazine.com.au/2021/08/17/plan-for-proposed-port-rejected/
$320 million for QLD’s second biggest infrastructure project,The Queensland Government has allocated $320 million to the state’s second biggest infrastructure project – the new Southern Queensland...,2021-08-13 00:00:00+10:05,https://infrastructuremagazine.com.au/2021/08/13/320-million-for-qlds-second-biggest-infrastructure-project/
Transport Plan to provide blueprint for Illawarra-Shoalhaven travel,"The final Illawarra-Shoalhaven Regional Transport Plan has been released, outlining how Transport NSW will adapt to changes in the...",2021-08-13 00:00:00+10:05,https://infrastructuremagazine.com.au/2021/08/13/transport-plan-to-provide-blueprint-for-illawarra-shoalhaven-travel/
Pacific Highway intersection upgrades underway,The NSW Government has announced that intersection upgrades on Northcott Drive and Kahibah Road on City Road (the Pacific...,2021-08-12 00:00:00+10:05,https://infrastructuremagazine.com.au/2021/08/12/pacific-highway-intersection-upgrades-underway/
New storage facilities proposed for Port Kembla,"Two new state-of-the-art import/export facilities have been proposed for Port Kembla, with the aim to create new opportunities for...",2021-08-12 00:00:00+10:05,https://infrastructuremagazine.com.au/2021/08/12/new-storage-facilities-proposed-for-port-kembla/
Two QLD train station upgrades reach vital milestones,"Two of the busiest train stations in Queensland’s inner city, South Bank and Auchenflower, have reached new stages of...",2021-08-11 00:00:00+10:05,https://infrastructuremagazine.com.au/2021/08/11/two-qld-train-station-upgrades-reach-vital-milestones/
NSW rail project achieves highest sustainability rating,"A NSW rail project has secured an Infrastructure Sustainability Council of Australia (ISCA) Leading rating for design, the highest...",2021-08-11 00:00:00+10:05,https://infrastructuremagazine.com.au/2021/08/11/nsw-rail-project-achieves-highest-sustainability-rating/
Desalination plant in Belmont planning approved,NSW’s Hunter Water has been granted planning approval to deliver a new desalination plant in Belmont – providing an...,2021-08-10 00:00:00+10:05,https://infrastructuremagazine.com.au/2021/08/10/desalination-plant-in-belmont-planning-approved/
850 traffic-light signals to be analysed in Melbourne,"Victoria’s Department of Transport has announced it will be analysing and updating 850 traffic signals throughout the west, south-east,...",2021-08-10 00:00:00+10:05,https://infrastructuremagazine.com.au/2021/08/10/850-traffic-light-signals-to-be-analysed-in-melbourne/
$1 million in funding for Darwin Aviation Training facility,"The Northern Territory Government has announced $1 million in funding for the Territory Aviation Skills Centre (TASC), to deliver...",2021-08-10 00:00:00+10:05,https://infrastructuremagazine.com.au/2021/08/10/1-million-in-funding-for-darwin-aviation-training-facility/
NSW construction workers back on site if vaccinated,"The NSW Government has announced that construction workers from eight affected LGAs can return to unoccupied sites, at 50...",2021-08-09 00:00:00+10:05,https://infrastructuremagazine.com.au/2021/08/09/nsw-construction-workers-back-on-site-if-vaccinated/
$40 million in projects for Pacific Highway,The Federal and NSW Governments have revealed a $40 million investment for upgrades and improvements to reduce the risk...,2021-08-09 00:00:00+10:05,https://infrastructuremagazine.com.au/2021/08/09/40-million-in-projects-for-pacific-highway/
$30 million upgrade for Melbourne Airport Terminal 3,"Melbourne Airport has announced a $30 million world-class infrastructure upgrade for Terminal 3, including contemporary amenities and greater connectivity...",2021-08-09 00:00:00+10:05,https://infrastructuremagazine.com.au/2021/08/09/30-million-upgrade-for-melbourne-airport-terminal-3/
